{"items":[{"title":"宝島","displayTitle":"宝島","author":"R・L・スティーヴンソン/鈴木 恵","publisher":"新潮社","genre":"小説","genreId":"001019015/001019001/001004009","imageUrl":"https://thumbnail.image.rakuten.co.jp/@0_mall/book/cabinet/3046/9784102003046.jpg?_ex=800x800","hasRealCover":true,"isbn":"9784102003046","itemUrl":"https://books.rakuten.co.jp/rb/14280230/","price":781,"firstReleaseDate":"2016年07月28日頃","label":"新潮文庫","seriesName":"新潮文庫","volumeCount":1,"coverCandidates":[{"imageUrl":"https://thumbnail.image.rakuten.co.jp/@0_mall/book/cabinet/3046/9784102003046.jpg?_ex=800x800","isbn":"9784102003046","hasRealCover":true}]},{"title":"プーの細道にたった家","displayTitle":"プーの細道にたった家","author":"A・A・ミルン/阿川 佐和子","publisher":"新潮社","genre":"外国の小説","genreId":"001004009","imageUrl":"https://thumbnail.image.rakuten.co.jp/@0_mall/book/cabinet/0051/9784105910051.jpg?_ex=800x800","hasRealCover":true,"isbn":"9784105910051","itemUrl":"https://books.rakuten.co.jp/rb/14287583/","price":1540,"firstReleaseDate":"2016年07月29日頃","label":"新潮モダン・クラシックス","seriesName":"新潮モダン・クラシックス","volumeCount":1,"coverCandidates":[{"imageUrl":"https://thumbnail.image.rakuten.co.jp/@0_mall/book/cabinet/0051/9784105910051.jpg?_ex=800x800","isbn":"9784105910051","hasRealCover":true}]},{"title":"傷だらけのカミーユ","displayTitle":"傷だらけのカミーユ","author":"ピエール・ルメートル/橘 明美","publisher":"文藝春秋","genre":"小説","genreId":"001019001/001004015/001004009","imageUrl":"https://thumbnail.image.rakuten.co.jp/@0_mall/book/cabinet/7075/9784167907075.jpg?_ex=800x800","hasRealCover":true,"isbn":"9784167907075","itemUrl":"https://books.rakuten.co.jp/rb/14331554/","price":924,"firstReleaseDate":"2016年10月07日頃","label":"文春文庫","seriesName":"文春文庫","volumeCount":1,"coverCandidates":[{"imageUrl":"https://thumbnail.image.rakuten.co.jp/@0_mall/book/cabinet/7075/9784167907075.jpg?_ex=800x800","isbn":"9784167907075","hasRealCover":true}]},{"title":"11/22/63 中","displayTitle":"11/22/63 中","author":"スティーヴン・キング/白石 朗","publisher":"文藝春秋","genre":"小説","genreId":"001019001/001004015/001004009","imageUrl":"https://thumbnail.image.rakuten.co.jp/@0_mall/book/cabinet/7228/9784167907228.jpg?_ex=800x800","hasRealCover":true,"isbn":"9784167907228","itemUrl":"https://books.rakuten.co.jp/rb/14391221/","price":1045,"firstReleaseDate":"2016年10月07日頃","label":"文春文庫","seriesName":"文春文庫","volumeCount":1,"coverCandidates":[{"imageUrl":"https://thumbnail.image.rakuten.co.jp/@0_mall/book/cabinet/7228/9784167907228.jpg?_ex=800x800","isbn":"9784167907228","hasRealCover":true}]},{"title":"そして誰もいなくなった　And　Then　There　Were　None","displayTitle":"そして誰もいなくなった　And　Then　There　Were　None","author":"アガサ・クリスティ","publisher":"講談社","genre":"小説","genreId":"001019001/001004015/001004009","imageUrl":"https://thumbnail.image.rakuten.co.jp/@0_mall/book/cabinet/0869/9784062500869_1_9.jpg?_ex=800x800","hasRealCover":true,"isbn":"9784062500869","itemUrl":"https://books.rakuten.co.jp/rb/14407597/","price":1045,"firstReleaseDate":"2016年11月18日頃","label":"KODANSHA　ENGLISH　LIBRARY","seriesName":"KODANSHA　ENGLISH　LIBRARY","volumeCount":1,"coverCandidates":[{"imageUrl":"https://thumbnail.image.rakuten.co.jp/@0_mall/book/cabinet/0869/9784062500869_1_9.jpg?_ex=800x800","isbn":"9784062500869","hasRealCover":true}]},{"title":"オリヴァー・ツイスト","displayTitle":"オリヴァー・ツイスト","author":"チャールズ・ディケンズ/加賀山 卓朗","publisher":"新潮社","genre":"小説","genreId":"001019001/001004009","imageUrl":"https://thumbnail.image.rakuten.co.jp/@0_mall/book/cabinet/0073/9784102030073.jpg?_ex=800x800","hasRealCover":true,"isbn":"9784102030073","itemUrl":"https://books.rakuten.co.jp/rb/14796324/","price":1155,"firstReleaseDate":"2017年04月28日頃","label":"新潮文庫","seriesName":"新潮文庫","volumeCount":1,"coverCandidates":[{"imageUrl":"https://thumbnail.image.rakuten.co.jp/@0_mall/book/cabinet/0073/9784102030073.jpg?_ex=800x800","isbn":"9784102030073","hasRealCover":true}]},{"title":"卵を産めない郭公","displayTitle":"卵を産めない郭公","author":"ジョン・ニコルズ/村上 春樹","publisher":"新潮社","genre":"小説","genreId":"001019001/001004009","imageUrl":"https://thumbnail.image.rakuten.co.jp/@0_mall/book/cabinet/0919/9784102200919.jpg?_ex=800x800","hasRealCover":true,"isbn":"9784102200919","itemUrl":"https://books.rakuten.co.jp/rb/14796308/","price":737,"firstReleaseDate":"2017年04月28日頃","label":"新潮文庫","seriesName":"新潮文庫","volumeCount":1,"coverCandidates":[{"imageUrl":"https://thumbnail.image.rakuten.co.jp/@0_mall/book/cabinet/0919/9784102200919.jpg?_ex=800x800","isbn":"9784102200919","hasRealCover":true}]},{"title":"あしながおじさん","displayTitle":"あしながおじさん","author":"ジーン・ウェブスター/岩本 正恵","publisher":"新潮社","genre":"小説","genreId":"001019001/001004009","imageUrl":"https://thumbnail.image.rakuten.co.jp/@0_mall/book/cabinet/2034/9784102082034.jpg?_ex=800x800","hasRealCover":true,"isbn":"9784102082034","itemUrl":"https://books.rakuten.co.jp/rb/14917408/","price":649,"firstReleaseDate":"2017年05月27日頃","label":"新潮文庫","seriesName":"新潮文庫","volumeCount":1,"coverCandidates":[{"imageUrl":"https://thumbnail.image.rakuten.co.jp/@0_mall/book/cabinet/2034/9784102082034.jpg?_ex=800x800","isbn":"9784102082034","hasRealCover":true}]},{"title":"続あしながおじさん","displayTitle":"続あしながおじさん","author":"ジーン・ウェブスター/畔柳 和代","publisher":"新潮社","genre":"小説","genreId":"001019001/001004009","imageUrl":"https://thumbnail.image.rakuten.co.jp/@0_mall/book/cabinet/2041/9784102082041.jpg?_ex=800x800","hasRealCover":true,"isbn":"9784102082041","itemUrl":"https://books.rakuten.co.jp/rb/14917409/","price":825,"firstReleaseDate":"2017年05月27日頃","label":"新潮文庫","seriesName":"新潮文庫","volumeCount":1,"coverCandidates":[{"imageUrl":"https://thumbnail.image.rakuten.co.jp/@0_mall/book/cabinet/2041/9784102082041.jpg?_ex=800x800","isbn":"9784102082041","hasRealCover":true}]},{"title":"英国諜報員アシェンデン","displayTitle":"英国諜報員アシェンデン","author":"サマセット・モーム/金原 瑞人","publisher":"新潮社","genre":"小説","genreId":"001019001/001004009","imageUrl":"https://thumbnail.image.rakuten.co.jp/@0_mall/book/cabinet/0292/9784102130292.jpg?_ex=800x800","hasRealCover":true,"isbn":"9784102130292","itemUrl":"https://books.rakuten.co.jp/rb/14988381/","price":880,"firstReleaseDate":"2017年06月28日頃","label":"新潮文庫","seriesName":"新潮文庫","volumeCount":1,"coverCandidates":[{"imageUrl":"https://thumbnail.image.rakuten.co.jp/@0_mall/book/cabinet/0292/9784102130292.jpg?_ex=800x800","isbn":"9784102130292","hasRealCover":true}]},{"title":"ヘンリー・ジェイムズ傑作選","displayTitle":"ヘンリー・ジェイムズ傑作選","author":"ヘンリー・ジェイムズ/行方 昭夫","publisher":"講談社","genre":"小説","genreId":"001019001/001004009","imageUrl":"https://thumbnail.image.rakuten.co.jp/@0_mall/book/cabinet/3578/9784062903578.jpg?_ex=800x800","hasRealCover":true,"isbn":"9784062903578","itemUrl":"https://books.rakuten.co.jp/rb/15024183/","price":2090,"firstReleaseDate":"2017年08月10日頃","label":"講談社文芸文庫","seriesName":"講談社文芸文庫","volumeCount":1,"coverCandidates":[{"imageUrl":"https://thumbnail.image.rakuten.co.jp/@0_mall/book/cabinet/3578/9784062903578.jpg?_ex=800x800","isbn":"9784062903578","hasRealCover":true}]},{"title":"ねじの回転","displayTitle":"ねじの回転","author":"ヘンリー・ジェイムズ/小川 高義","publisher":"新潮社","genre":"小説","genreId":"001019001/001004009","imageUrl":"https://thumbnail.image.rakuten.co.jp/@0_mall/book/cabinet/1031/9784102041031.jpg?_ex=800x800","hasRealCover":true,"isbn":"9784102041031","itemUrl":"https://books.rakuten.co.jp/rb/15068116/","price":605,"firstReleaseDate":"2017年08月29日頃","label":"新潮文庫","seriesName":"新潮文庫","volumeCount":1,"coverCandidates":[{"imageUrl":"https://thumbnail.image.rakuten.co.jp/@0_mall/book/cabinet/1031/9784102041031.jpg?_ex=800x800","isbn":"9784102041031","hasRealCover":true}]},{"title":"水滸伝　（一）","displayTitle":"水滸伝　（一）","author":"井波 律子","publisher":"講談社","genre":"小説","genreId":"001019001/001004009","imageUrl":"https://thumbnail.image.rakuten.co.jp/@0_mall/book/cabinet/4511/9784062924511_1_7.jpg?_ex=800x800","hasRealCover":true,"isbn":"9784062924511","itemUrl":"https://books.rakuten.co.jp/rb/15083081/","price":2596,"firstReleaseDate":"2017年09月12日頃","label":"講談社学術文庫","seriesName":"講談社学術文庫","volumeCount":1,"coverCandidates":[{"imageUrl":"https://thumbnail.image.rakuten.co.jp/@0_mall/book/cabinet/4511/9784062924511_1_7.jpg?_ex=800x800","isbn":"9784062924511","hasRealCover":true}]},{"title":"水滸伝　（二）","displayTitle":"水滸伝　（二）","author":"井波 律子","publisher":"講談社","genre":"小説","genreId":"001019001/001004009","imageUrl":"https://thumbnail.image.rakuten.co.jp/@0_mall/book/cabinet/4528/9784062924528_1_5.jpg?_ex=800x800","hasRealCover":true,"isbn":"9784062924528","itemUrl":"https://books.rakuten.co.jp/rb/15138929/","price":2013,"firstReleaseDate":"2017年10月11日頃","label":"講談社学術文庫","seriesName":"講談社学術文庫","volumeCount":1,"coverCandidates":[{"imageUrl":"https://thumbnail.image.rakuten.co.jp/@0_mall/book/cabinet/4528/9784062924528_1_5.jpg?_ex=800x800","isbn":"9784062924528","hasRealCover":true}]},{"title":"水滸伝　（三）","displayTitle":"水滸伝　（三）","author":"井波 律子","publisher":"講談社","genre":"小説","genreId":"001019001/001004009","imageUrl":"https://thumbnail.image.rakuten.co.jp/@0_mall/book/cabinet/4535/9784062924535_1_5.jpg?_ex=800x800","hasRealCover":true,"isbn":"9784062924535","itemUrl":"https://books.rakuten.co.jp/rb/15197922/","price":1958,"firstReleaseDate":"2017年11月11日頃","label":"講談社学術文庫","seriesName":"講談社学術文庫","volumeCount":1,"coverCandidates":[{"imageUrl":"https://thumbnail.image.rakuten.co.jp/@0_mall/book/cabinet/4535/9784062924535_1_5.jpg?_ex=800x800","isbn":"9784062924535","hasRealCover":true}]},{"title":"ピーター・パンの冒険","displayTitle":"ピーター・パンの冒険","author":"ジェームズ・M・バリー/大久保 寛","publisher":"新潮社","genre":"小説","genreId":"001019001/001004009","imageUrl":"https://thumbnail.image.rakuten.co.jp/@0_mall/book/cabinet/4033/9784102104033.jpg?_ex=800x800","hasRealCover":true,"isbn":"9784102104033","itemUrl":"https://books.rakuten.co.jp/rb/15213954/","price":440,"firstReleaseDate":"2017年11月29日頃","label":"新潮文庫","seriesName":"新潮文庫","volumeCount":1,"coverCandidates":[{"imageUrl":"https://thumbnail.image.rakuten.co.jp/@0_mall/book/cabinet/4033/9784102104033.jpg?_ex=800x800","isbn":"9784102104033","hasRealCover":true}]},{"title":"水滸伝　（四）","displayTitle":"水滸伝　（四）","author":"井波 律子","publisher":"講談社","genre":"小説","genreId":"001019001/001004009","imageUrl":"https://thumbnail.image.rakuten.co.jp/@0_mall/book/cabinet/4542/9784062924542_1_9.jpg?_ex=800x800","hasRealCover":true,"isbn":"9784062924542","itemUrl":"https://books.rakuten.co.jp/rb/15237657/","price":2200,"firstReleaseDate":"2017年12月13日頃","label":"講談社学術文庫","seriesName":"講談社学術文庫","volumeCount":1,"coverCandidates":[{"imageUrl":"https://thumbnail.image.rakuten.co.jp/@0_mall/book/cabinet/4542/9784062924542_1_9.jpg?_ex=800x800","isbn":"9784062924542","hasRealCover":true}]},{"title":"林檎の樹","displayTitle":"林檎の樹","author":"ゴールズワージー/法村 里絵","publisher":"新潮社","genre":"小説","genreId":"001019001/001004009","imageUrl":"https://thumbnail.image.rakuten.co.jp/@0_mall/book/cabinet/8036/9784102088036.jpg?_ex=800x800","hasRealCover":true,"isbn":"9784102088036","itemUrl":"https://books.rakuten.co.jp/rb/15256388/","price":440,"firstReleaseDate":"2017年12月25日頃","label":"新潮文庫","seriesName":"新潮文庫","volumeCount":1,"coverCandidates":[{"imageUrl":"https://thumbnail.image.rakuten.co.jp/@0_mall/book/cabinet/8036/9784102088036.jpg?_ex=800x800","isbn":"9784102088036","hasRealCover":true}]},{"title":"誰がために鐘は鳴る 上","displayTitle":"誰がために鐘は鳴る 上","author":"アーネスト・ヘミングウェイ/高見 浩","publisher":"新潮社","genre":"小説","genreId":"001019001/001004009","imageUrl":"https://thumbnail.image.rakuten.co.jp/@0_mall/book/cabinet/0165/9784102100165.jpg?_ex=800x800","hasRealCover":true,"isbn":"9784102100165","itemUrl":"https://books.rakuten.co.jp/rb/15280775/","price":990,"firstReleaseDate":"2018年02月28日頃","label":"新潮文庫","seriesName":"新潮文庫","volumeCount":1,"coverCandidates":[{"imageUrl":"https://thumbnail.image.rakuten.co.jp/@0_mall/book/cabinet/0165/9784102100165.jpg?_ex=800x800","isbn":"9784102100165","hasRealCover":true}]},{"title":"誰がために鐘は鳴る 下","displayTitle":"誰がために鐘は鳴る 下","author":"アーネスト・ヘミングウェイ/高見 浩","publisher":"新潮社","genre":"小説","genreId":"001019001/001004009","imageUrl":"https://thumbnail.image.rakuten.co.jp/@0_mall/book/cabinet/0172/9784102100172.jpg?_ex=800x800","hasRealCover":true,"isbn":"9784102100172","itemUrl":"https://books.rakuten.co.jp/rb/15280776/","price":935,"firstReleaseDate":"2018年02月28日頃","label":"新潮文庫","seriesName":"新潮文庫","volumeCount":1,"coverCandidates":[{"imageUrl":"https://thumbnail.image.rakuten.co.jp/@0_mall/book/cabinet/0172/9784102100172.jpg?_ex=800x800","isbn":"9784102100172","hasRealCover":true}]},{"title":"オンブレ","displayTitle":"オンブレ","author":"エルモア・レナード/村上 春樹","publisher":"新潮社","genre":"小説","genreId":"001019001/001004009","imageUrl":"https://thumbnail.image.rakuten.co.jp/@0_mall/book/cabinet/1411/9784102201411.jpg?_ex=800x800","hasRealCover":true,"isbn":"9784102201411","itemUrl":"https://books.rakuten.co.jp/rb/15305024/","price":605,"firstReleaseDate":"2018年01月27日頃","label":"新潮文庫","seriesName":"新潮文庫","volumeCount":1,"coverCandidates":[{"imageUrl":"https://thumbnail.image.rakuten.co.jp/@0_mall/book/cabinet/1411/9784102201411.jpg?_ex=800x800","isbn":"9784102201411","hasRealCover":true}]},{"title":"昏い水","displayTitle":"昏い水","author":"マーガレット・ドラブル/武藤 浩史","publisher":"新潮社","genre":"外国の小説","genreId":"001004009","imageUrl":"https://thumbnail.image.rakuten.co.jp/@0_mall/book/cabinet/1448/9784105901448.jpg?_ex=800x800","hasRealCover":true,"isbn":"9784105901448","itemUrl":"https://books.rakuten.co.jp/rb/15323381/","price":2530,"firstReleaseDate":"2018年02月27日頃","label":"新潮クレスト・ブックス","seriesName":"新潮クレスト・ブックス","volumeCount":1,"coverCandidates":[{"imageUrl":"https://thumbnail.image.rakuten.co.jp/@0_mall/book/cabinet/1448/9784105901448.jpg?_ex=800x800","isbn":"9784105901448","hasRealCover":true}]},{"title":"マザリング・サンデー","displayTitle":"マザリング・サンデー","author":"グレアム・スウィフト/真野 泰","publisher":"新潮社","genre":"外国の小説","genreId":"001004009","imageUrl":"https://thumbnail.image.rakuten.co.jp/@0_mall/book/cabinet/1455/9784105901455.jpg?_ex=800x800","hasRealCover":true,"isbn":"9784105901455","itemUrl":"https://books.rakuten.co.jp/rb/15364349/","price":2145,"firstReleaseDate":"2018年03月30日頃","label":"新潮クレスト・ブックス","seriesName":"新潮クレスト・ブックス","volumeCount":1,"coverCandidates":[{"imageUrl":"https://thumbnail.image.rakuten.co.jp/@0_mall/book/cabinet/1455/9784105901455.jpg?_ex=800x800","isbn":"9784105901455","hasRealCover":true}]},{"title":"ミスト 短編傑作選","displayTitle":"ミスト 短編傑作選","author":"スティーヴン・キング/矢野 浩三郎","publisher":"文藝春秋","genre":"小説","genreId":"001019001/001004009","imageUrl":"https://thumbnail.image.rakuten.co.jp/@0_mall/book/cabinet/0761/9784167910761_1_5.jpg?_ex=800x800","hasRealCover":true,"isbn":"9784167910761","itemUrl":"https://books.rakuten.co.jp/rb/15395584/","price":1067,"firstReleaseDate":"2018年05月10日頃","label":"文春文庫","seriesName":"文春文庫","volumeCount":1,"coverCandidates":[{"imageUrl":"https://thumbnail.image.rakuten.co.jp/@0_mall/book/cabinet/0761/9784167910761_1_5.jpg?_ex=800x800","isbn":"9784167910761","hasRealCover":true}]},{"title":"きげんのいいリス","displayTitle":"きげんのいいリス","author":"トーン・テレヘン/長山 さき","publisher":"新潮社","genre":"外国の小説","genreId":"001004009","imageUrl":"https://thumbnail.image.rakuten.co.jp/@0_mall/book/cabinet/9926/9784105069926.jpg?_ex=800x800","hasRealCover":true,"isbn":"9784105069926","itemUrl":"https://books.rakuten.co.jp/rb/15397111/","price":1430,"firstReleaseDate":"2018年04月26日頃","label":"","seriesName":"","volumeCount":1,"coverCandidates":[{"imageUrl":"https://thumbnail.image.rakuten.co.jp/@0_mall/book/cabinet/9926/9784105069926.jpg?_ex=800x800","isbn":"9784105069926","hasRealCover":true}]},{"title":"人魚姫　アンデルセン童話集　The　Little　Mermaid　and　Other　Stories","displayTitle":"人魚姫　アンデルセン童話集　The　Little　Mermaid　and　Other　Stories","author":"ハンス．クリスチャン・アンデルセン/ステュウット・ヴァーナムーアットキン/三木 由記子","publisher":"講談社","genre":"小説","genreId":"001019007/001004009","imageUrl":"https://thumbnail.image.rakuten.co.jp/@0_mall/book/cabinet/8429/9784065118429.jpg?_ex=800x800","hasRealCover":true,"isbn":"9784065118429","itemUrl":"https://books.rakuten.co.jp/rb/15442165/","price":880,"firstReleaseDate":"2018年07月02日頃","label":"KODANSHA　ENGLISH　LIBRARY","seriesName":"KODANSHA　ENGLISH　LIBRARY","volumeCount":1,"coverCandidates":[{"imageUrl":"https://thumbnail.image.rakuten.co.jp/@0_mall/book/cabinet/8429/9784065118429.jpg?_ex=800x800","isbn":"9784065118429","hasRealCover":true}]},{"title":"ワインズバーグ、オハイオ","displayTitle":"ワインズバーグ、オハイオ","author":"シャーウッド・アンダーソン/上岡 伸雄","publisher":"新潮社","genre":"小説","genreId":"001019001/001004009","imageUrl":"https://thumbnail.image.rakuten.co.jp/@0_mall/book/cabinet/1510/9784102201510.jpg?_ex=800x800","hasRealCover":true,"isbn":"9784102201510","itemUrl":"https://books.rakuten.co.jp/rb/15472222/","price":649,"firstReleaseDate":"2018年06月28日頃","label":"新潮文庫","seriesName":"新潮文庫","volumeCount":1,"coverCandidates":[{"imageUrl":"https://thumbnail.image.rakuten.co.jp/@0_mall/book/cabinet/1510/9784102201510.jpg?_ex=800x800","isbn":"9784102201510","hasRealCover":true}]},{"title":"嘘ばっかり","displayTitle":"嘘ばっかり","author":"ジェフリー・アーチャー/戸田 裕之","publisher":"新潮社","genre":"小説","genreId":"001019001/001004009","imageUrl":"https://thumbnail.image.rakuten.co.jp/@0_mall/book/cabinet/1470/9784102161470.jpg?_ex=800x800","hasRealCover":true,"isbn":"9784102161470","itemUrl":"https://books.rakuten.co.jp/rb/15544577/","price":990,"firstReleaseDate":"2018年08月29日頃","label":"新潮文庫","seriesName":"新潮文庫","volumeCount":1,"coverCandidates":[{"imageUrl":"https://thumbnail.image.rakuten.co.jp/@0_mall/book/cabinet/1470/9784102161470.jpg?_ex=800x800","isbn":"9784102161470","hasRealCover":true}]},{"title":"最初の悪い男","displayTitle":"最初の悪い男","author":"ミランダ・ジュライ/岸本 佐知子","publisher":"新潮社","genre":"外国の小説","genreId":"001004009","imageUrl":"https://thumbnail.image.rakuten.co.jp/@0_mall/book/cabinet/1509/9784105901509.jpg?_ex=800x800","hasRealCover":true,"isbn":"9784105901509","itemUrl":"https://books.rakuten.co.jp/rb/15561269/","price":2750,"firstReleaseDate":"2018年08月24日頃","label":"新潮クレスト・ブックス","seriesName":"新潮クレスト・ブックス","volumeCount":1,"coverCandidates":[{"imageUrl":"https://thumbnail.image.rakuten.co.jp/@0_mall/book/cabinet/1509/9784105901509.jpg?_ex=800x800","isbn":"9784105901509","hasRealCover":true}]},{"title":"あの頃、君を追いかけた","displayTitle":"あの頃、君を追いかけた","author":"九把刀/阿井 幸作/泉 京鹿","publisher":"講談社","genre":"小説","genreId":"001019001/001004009","imageUrl":"https://thumbnail.image.rakuten.co.jp/@0_mall/book/cabinet/0612/9784065130612_1_5.jpg?_ex=800x800","hasRealCover":true,"isbn":"9784065130612","itemUrl":"https://books.rakuten.co.jp/rb/15568925/","price":715,"firstReleaseDate":"2018年08月10日頃","label":"講談社文庫","seriesName":"講談社文庫","volumeCount":1,"coverCandidates":[{"imageUrl":"https://thumbnail.image.rakuten.co.jp/@0_mall/book/cabinet/0612/9784065130612_1_5.jpg?_ex=800x800","isbn":"9784065130612","hasRealCover":true}]},{"title":"ドリトル先生アフリカ行き　The　Story　of　Doctor　Dolittle","displayTitle":"ドリトル先生アフリカ行き　The　Story　of　Doctor　Dolittle","author":"ヒュー．ロフティング","publisher":"講談社","genre":"小説","genreId":"001019007/001004009","imageUrl":"https://thumbnail.image.rakuten.co.jp/@0_mall/book/cabinet/3262/9784065133262_1_9.jpg?_ex=800x800","hasRealCover":true,"isbn":"9784065133262","itemUrl":"https://books.rakuten.co.jp/rb/15593684/","price":880,"firstReleaseDate":"2020年11月12日頃","label":"KODANSHA　ENGLISH　LIBRARY","seriesName":"KODANSHA　ENGLISH　LIBRARY","volumeCount":1,"coverCandidates":[{"imageUrl":"https://thumbnail.image.rakuten.co.jp/@0_mall/book/cabinet/3262/9784065133262_1_9.jpg?_ex=800x800","isbn":"9784065133262","hasRealCover":true}]},{"title":"新潮日本古典集成〈新装版〉 和漢朗詠集","displayTitle":"新潮日本古典集成〈新装版〉 和漢朗詠集","author":"大曽根 章介/堀内 秀晃","publisher":"新潮社","genre":"外国の小説","genreId":"001004009","imageUrl":"https://thumbnail.image.rakuten.co.jp/@0_mall/book/cabinet/8263/9784106208263.jpg?_ex=800x800","hasRealCover":true,"isbn":"9784106208263","itemUrl":"https://books.rakuten.co.jp/rb/15599351/","price":2860,"firstReleaseDate":"2018年09月27日頃","label":"","seriesName":"","volumeCount":1,"coverCandidates":[{"imageUrl":"https://thumbnail.image.rakuten.co.jp/@0_mall/book/cabinet/8263/9784106208263.jpg?_ex=800x800","isbn":"9784106208263","hasRealCover":true}]},{"title":"インヴィジブル","displayTitle":"インヴィジブル","author":"ポール・オースター/柴田 元幸","publisher":"新潮社","genre":"外国の小説","genreId":"001004009","imageUrl":"https://thumbnail.image.rakuten.co.jp/@0_mall/book/cabinet/7204/9784105217204.jpg?_ex=800x800","hasRealCover":true,"isbn":"9784105217204","itemUrl":"https://books.rakuten.co.jp/rb/15599330/","price":2310,"firstReleaseDate":"2018年09月27日頃","label":"","seriesName":"","volumeCount":1,"coverCandidates":[{"imageUrl":"https://thumbnail.image.rakuten.co.jp/@0_mall/book/cabinet/7204/9784105217204.jpg?_ex=800x800","isbn":"9784105217204","hasRealCover":true}]},{"title":"両方になる","displayTitle":"両方になる","author":"アリ・スミス/木原 善彦","publisher":"新潮社","genre":"外国の小説","genreId":"001004009","imageUrl":"https://thumbnail.image.rakuten.co.jp/@0_mall/book/cabinet/1523/9784105901523.jpg?_ex=800x800","hasRealCover":true,"isbn":"9784105901523","itemUrl":"https://books.rakuten.co.jp/rb/15599324/","price":2640,"firstReleaseDate":"2018年09月27日頃","label":"新潮クレスト・ブックス","seriesName":"新潮クレスト・ブックス","volumeCount":1,"coverCandidates":[{"imageUrl":"https://thumbnail.image.rakuten.co.jp/@0_mall/book/cabinet/1523/9784105901523.jpg?_ex=800x800","isbn":"9784105901523","hasRealCover":true}]},{"title":"ミスター・メルセデス 下","displayTitle":"ミスター・メルセデス 下","author":"スティーヴン・キング/白石 朗","publisher":"文藝春秋","genre":"小説","genreId":"001019001/001004009","imageUrl":"https://thumbnail.image.rakuten.co.jp/@0_mall/book/cabinet/1843/9784167911843.jpg?_ex=800x800","hasRealCover":true,"isbn":"9784167911843","itemUrl":"https://books.rakuten.co.jp/rb/15628642/","price":1078,"firstReleaseDate":"2018年11月09日頃","label":"文春文庫","seriesName":"文春文庫","volumeCount":1,"coverCandidates":[{"imageUrl":"https://thumbnail.image.rakuten.co.jp/@0_mall/book/cabinet/1843/9784167911843.jpg?_ex=800x800","isbn":"9784167911843","hasRealCover":true}]},{"title":"ミスター・メルセデス 上","displayTitle":"ミスター・メルセデス 上","author":"スティーヴン・キング/白石 朗","publisher":"文藝春秋","genre":"小説","genreId":"001019001/001004009","imageUrl":"https://thumbnail.image.rakuten.co.jp/@0_mall/book/cabinet/1836/9784167911836.jpg?_ex=800x800","hasRealCover":true,"isbn":"9784167911836","itemUrl":"https://books.rakuten.co.jp/rb/15628643/","price":1023,"firstReleaseDate":"2018年11月09日頃","label":"文春文庫","seriesName":"文春文庫","volumeCount":1,"coverCandidates":[{"imageUrl":"https://thumbnail.image.rakuten.co.jp/@0_mall/book/cabinet/1836/9784167911836.jpg?_ex=800x800","isbn":"9784167911836","hasRealCover":true}]},{"title":"帰れない山","displayTitle":"帰れない山","author":"パオロ・コニェッティ/関口 英子","publisher":"新潮社","genre":"外国の小説","genreId":"001004009","imageUrl":"https://thumbnail.image.rakuten.co.jp/@0_mall/book/cabinet/1530/9784105901530.jpg?_ex=800x800","hasRealCover":true,"isbn":"9784105901530","itemUrl":"https://books.rakuten.co.jp/rb/15636804/","price":2475,"firstReleaseDate":"2018年10月31日頃","label":"新潮クレスト・ブックス","seriesName":"新潮クレスト・ブックス","volumeCount":1,"coverCandidates":[{"imageUrl":"https://thumbnail.image.rakuten.co.jp/@0_mall/book/cabinet/1530/9784105901530.jpg?_ex=800x800","isbn":"9784105901530","hasRealCover":true}]}],"page":25,"totalPages":25,"totalCount":1477,"itemsPerPage":60}